Exercise-05
…
Step 8

reps <- 1000 

s <- do(reps) * { #running through 1000 samples
  d_filtered |> #of my filtered data
    group_by(decade) |> #grouped by decade
    summarise(
      mean = mean(sample(runtimeMinutes, size = 100, replace = FALSE)), #the mean for 100 samples
      sd = sd(sample(runtimeMinutes, size = 100, replace = FALSE)) # the sd for 100 samples
      )}
s

# A tibble: 6,000 × 5
   decade  mean    sd  .row .index
   <chr>  <dbl> <dbl> <int>  <dbl>
 1 20's    95.6  25.2     1      1
 2 30's    88.8  19.7     2      1
 3 40's    96.3  19.6     3      1
 4 50's    97.0  18.1     4      1
 5 60's   105.   19.2     5      1
 6 70's   101.   17.6     6      1
 7 20's    99.2  25.9     1      2
 8 30's    90.2  18.6     2      2
 9 40's    97.5  17.9     3      2
10 50's   100.   17.4     4      2
# ℹ 5,990 more rows
…
